R & MC - A ggplot2 and gganimate Version of Pac-Man
…
Note: maze_points is a dataset of ggpacman (data("maze_points", package = "ggpacman")).

4 Pac-Man character

It is now time to draw the main character. To draw Pac-Man, I needed few things:

The Pac-Man moves, i.e., all the coordinates where Pac-Man is supposed to be at every step.

data("pacman", package = "ggpacman")
unnest(pacman, c("x", "y"))
#> # A tibble: 150 × 3
#>        x     y colour 
#>    <dbl> <dbl> <chr>  
#>  1    10     6 Pac-Man
#>  2    10     6 Pac-Man
#>  3    10     6 Pac-Man
#>  4    10     6 Pac-Man
#>  5    10     6 Pac-Man
#>  6    10     6 Pac-Man
#>  7    10     6 Pac-Man
#>  8    10     6 Pac-Man
#>  9    10     6 Pac-Man
#> 10    10     6 Pac-Man
#> # … with 140 more rows
…
pacman %>%
  unnest(c("x", "y")) %>%
  mutate(
    state_x = sign(x - lag(x)),
    state_y = sign(y - lag(y)),
    state = case_when(
      (is.na(state_x) | state_x %in% 0) & (is.na(state_y) | state_y %in% 0) ~ list(c("open_right", "close_right")),
      state_x == 1 & state_y == 0 ~ list(c("open_right", "close_right")),
      state_x == -1 & state_y == 0 ~ list(c("open_left", "close_left")),
      state_x == 0 & state_y == -1 ~ list(c("open_down", "close_down")),
      state_x == 0 & state_y == 1 ~ list(c("open_up", "close_up"))
    )
  )  %>%
  unnest("state")
#> # A tibble: 300 × 6
#>        x     y colour  state_x state_y state      
#>    <dbl> <dbl> <chr>     <dbl>   <dbl> <chr>      
#>  1    10     6 Pac-Man      NA      NA open_right 
#>  2    10     6 Pac-Man      NA      NA close_right
#>  3    10     6 Pac-Man       0       0 open_right 
#>  4    10     6 Pac-Man       0       0 close_right
#>  5    10     6 Pac-Man       0       0 open_right 
#>  6    10     6 Pac-Man       0       0 close_right
#>  7    10     6 Pac-Man       0       0 open_right 
#>  8    10     6 Pac-Man       0       0 close_right
#>  9    10     6 Pac-Man       0       0 open_right 
#> 10    10     6 Pac-Man       0       0 close_right
#> # … with 290 more rows

Here, in preparation for gganimate, I also added a column step before merging the new upgraded pacman (i.e., with the Pac-Man state column) with the pacman_state defined earlier.

pacman_moves <- ggpacman::compute_pacman_coord(pacman)

#> # A tibble: 300 × 9
#>        x     y colour  state_x state_y state        step start   end
#>    <dbl> <dbl> <chr>     <dbl>   <dbl> <chr>       <int> <dbl> <dbl>
#>  1    10     6 Pac-Man      NA      NA open_right      1  7.33  2.09
#>  2    10     6 Pac-Man      NA      NA close_right     2  7.85  1.57
#>  3    10     6 Pac-Man       0       0 open_right      3  7.33  2.09
#>  4    10     6 Pac-Man       0       0 close_right     4  7.85  1.57
#>  5    10     6 Pac-Man       0       0 open_right      5  7.33  2.09
#>  6    10     6 Pac-Man       0       0 close_right     6  7.85  1.57
#>  7    10     6 Pac-Man       0       0 open_right      7  7.33  2.09
#>  8    10     6 Pac-Man       0       0 close_right     8  7.85  1.57
#>  9    10     6 Pac-Man       0       0 open_right      9  7.33  2.09
#> 10    10     6 Pac-Man       0       0 close_right    10  7.85  1.57
#> # … with 290 more rows
…
6 How Pac-Man interacts with the maze?

6.1 Bonus points

For ease, I am using some functions I defined to go quickly to the results of the first part of this readme. The idea here is to look at all the position in common between Pac-Man (pacman_moves) and the bonus points (maze_points). Each time Pac-Man was at the same place as a bonus point, I defined a status "eaten" for all values of step after. I ended up with a big table with position and the state of the bonus points.

pacman_moves <- ggpacman::compute_pacman_coord(get(data("pacman", package = "ggpacman")))
right_join(get(data("maze_points")), pacman_moves, by = c("x", "y")) %>%
  distinct(step, x, y, type) %>%
  mutate(
    step = map2(step, max(step), ~ seq(.x, .y, 1)),
    colour = "eaten"
  ) %>%
  unnest("step")
#> # A tibble: 45,150 × 5
#>        x     y type    step colour
#>    <dbl> <dbl> <chr>  <dbl> <chr> 
#>  1     1     1 normal    61 eaten 
#>  2     1     1 normal    62 eaten 
#>  3     1     1 normal    63 eaten 
#>  4     1     1 normal    64 eaten 
#>  5     1     1 normal    65 eaten 
#>  6     1     1 normal    66 eaten 
#>  7     1     1 normal    67 eaten 
#>  8     1     1 normal    68 eaten 
#>  9     1     1 normal    69 eaten 
#> 10     1     1 normal    70 eaten 
#> # … with 45,140 more rows
…
ghosts_vulnerability <- bonus_points_eaten %>%
  filter(type == "big") %>%
  group_by(x, y) %>%
  summarise(step_init = min(step)) %>%
  ungroup() %>%
  mutate(
    step = map(step_init, ~ seq(.x, .x + 30, 1)),
    vulnerability = TRUE,
    x = NULL,
    y = NULL
  ) %>%
  unnest("step")

#> # A tibble: 93 × 3
#>    step_init  step vulnerability
#>        <dbl> <dbl> <lgl>        
#>  1        79    79 TRUE         
#>  2        79    80 TRUE         
#>  3        79    81 TRUE         
#>  4        79    82 TRUE         
#>  5        79    83 TRUE         
#>  6        79    84 TRUE         
#>  7        79    85 TRUE         
#>  8        79    86 TRUE         
#>  9        79    87 TRUE         
#> 10        79    88 TRUE         
#> # … with 83 more rows
…
To simplify a little, below a small example of a ghost moving in one direction with predetermined states.

blinky_ghost <- bind_rows(
  tibble(x = 1:4, y = 0, colour = "Blinky"),
  tibble(x = 5:8, y = 0, colour = "Blinky_weak"),
  tibble(x = 9:12, y = 0, colour = "Blinky_eaten")
)
blinky_moves <- ggpacman::compute_ghost_coord(blinky_ghost)

#> # A tibble: 48 × 12
#>    colour    X0    Y0 state_x state_y direct…¹ state  step noise_x noise_y body 
#>    <chr>  <int> <dbl>   <dbl>   <dbl> <chr>    <int> <int>   <dbl>   <dbl> <lis>
#>  1 Blinky     1     0      NA      NA middle       1     1  0.0272  0.0212 <df> 
#>  2 Blinky     1     0      NA      NA middle       2     2 -0.0967  0.0367 <df> 
#>  3 Blinky     1     0      NA      NA middle       3     3  0.0119 -0.0679 <df> 
#>  4 Blinky     1     0      NA      NA middle       4     4  0.0661 -0.0338 <df> 
#>  5 Blinky     2     0       1       0 right        1     5  0.0339  0.0557 <df> 
#>  6 Blinky     2     0       1       0 right        2     6 -0.0940  0.0723 <df> 
#>  7 Blinky     2     0       1       0 right        3     7 -0.0126  0.0249 <df> 
#>  8 Blinky     2     0       1       0 right        4     8 -0.0197 -0.0140 <df> 
#>  9 Blinky     3     0       1       0 right        1     9 -0.0279 -0.0425 <df> 
#> 10 Blinky     3     0       1       0 right        2    10  0.0327  0.0102 <df> 
#> # … with 38 more rows, 1 more variable: eyes <list>, and abbreviated variable
#> #   name ¹​direction
…
